{
    "navigation": {
        "tabs": {
            "home": "Start",
            "iris": "Iris",
            "texts": "Texts",
            "talents": "Talents",
            "events": "Events"
        },
        "home": {
            "coming_up": "Coming up ..."
        }
    },
    "screens": {
        "texts": {
            "placeholder": "Type a search word(s) ...",
            "buttonLabels": {
                "thought": "Thoughts",
                "epicurus": "Epicurus",
                "book": "Books",
                "glossary": "Glossary"
            },
            "bookTypes": {
                "book": "Book",
                "ebook": "Ebook",
                "audiobook": "Audiobook"
            },
            "download": "Unformated text",
            "buyTypes": {
                "book": "Buy book",
                "ebook": "Buy ebook",
                "audiobook": "Buy audiobook",
                "donwload": "Download unformatted text"
            }
        }
    }
}
